<?xml version="1.0" encoding="UTF-8" standalone="no"?>
<!-- Generator: Adobe Illustrator 22.1.0, SVG Export Plug-In . SVG Version: 6.00 Build 0)  -->

<svg
   xmlns:dc="http://purl.org/dc/elements/1.1/"
   xmlns:cc="http://creativecommons.org/ns#"
   xmlns:rdf="http://www.w3.org/1999/02/22-rdf-syntax-ns#"
   xmlns:svg="http://www.w3.org/2000/svg"
   xmlns="http://www.w3.org/2000/svg"
   xmlns:sodipodi="http://sodipodi.sourceforge.net/DTD/sodipodi-0.dtd"
   xmlns:inkscape="http://www.inkscape.org/namespaces/inkscape"
   version="1.1"
   id="Layer_1"
   x="0px"
   y="0px"
   viewBox="0 0 253 93"
   style="enable-background:new 0 0 253 93;"
   xml:space="preserve"
   sodipodi:docname="logo.svg"
   inkscape:version="0.92.4 (5da689c313, 2019-01-14)"><metadata
   id="metadata456"><rdf:RDF><cc:Work
       rdf:about=""><dc:format>image/svg+xml</dc:format><dc:type
         rdf:resource="http://purl.org/dc/dcmitype/StillImage" /></cc:Work></rdf:RDF></metadata><defs
   id="defs454" /><sodipodi:namedview
   pagecolor="#ffffff"
   bordercolor="#666666"
   borderopacity="1"
   objecttolerance="10"
   gridtolerance="10"
   guidetolerance="10"
   inkscape:pageopacity="0"
   inkscape:pageshadow="2"
   inkscape:window-width="1842"
   inkscape:window-height="1057"
   id="namedview452"
   showgrid="false"
   inkscape:zoom="2.8284271"
   inkscape:cx="97.894044"
   inkscape:cy="21.389795"
   inkscape:window-x="70"
   inkscape:window-y="-8"
   inkscape:window-maximized="1"
   inkscape:current-layer="Layer_1" />
<style
   type="text/css"
   id="style374">
	.st0{fill:#004466;}
	.st1{fill:url(#SVGID_1_);}
	.st2{fill:#8362C5;}
	.st3{fill:#FFFFFF;}
</style>
<g
   id="g449"
   transform="translate(5.7932711,-24.205797)">
	
	
	<linearGradient
   id="SVGID_1_"
   gradientUnits="userSpaceOnUse"
   x1="7.4822998"
   y1="83.814598"
   x2="88.690903"
   y2="2.6059999">
		<stop
   offset="0"
   style="stop-color:#21D4FD"
   id="stop408" />
		<stop
   offset="1"
   style="stop-color:#B721FF"
   id="stop410" />
	</linearGradient>
	
	<g
   id="g447"
   style="fill:#000000"
   transform="translate(-13.090098,19.01181)">
		
		
	<g
   aria-label="Суздаль"
   style="font-style:normal;font-weight:normal;font-size:40px;line-height:1.25;font-family:sans-serif;letter-spacing:0px;word-spacing:0px;fill:#000000;fill-opacity:1;stroke:none"
   id="text481" />


</g>
</g>
<g
   id="g6327"
   transform="matrix(0.58744548,0,0,-0.58744548,143.47054,-319.08661)"><path
     sodipodi:nodetypes="cccc"
     inkscape:connector-curvature="0"
     id="path6154"
     d="m -201.39469,-642.50034 c 32.84296,-7.90517 30.87641,-27.28167 33.96284,-44.99297 l -55.90111,31.9674 c 2.72562,12.71837 11.12202,15.0814 21.93827,13.02557 z"
     inkscape:transform-center-y="13.34967"
     inkscape:transform-center-x="-1.3191635"
     style="fill:#fdb813;fill-opacity:1;stroke:none;stroke-width:1.04777086;stroke-opacity:1" /><path
     sodipodi:nodetypes="cccc"
     inkscape:connector-curvature="0"
     id="path6154-3"
     d="m -111.39034,-655.21584 -56.04151,-32.27747 c 5.56501,17.44279 -2.02622,36.54733 34.40182,45.03983 13.33174,5.08452 17.57064,-3.70858 21.63969,-12.76236 z"
     inkscape:transform-center-y="-1.31916"
     inkscape:transform-center-x="-13.349673"
     style="fill:#ed961a;fill-opacity:1;stroke:none;stroke-width:1.04777086;stroke-opacity:1" /><path
     sodipodi:nodetypes="cccc"
     inkscape:connector-curvature="0"
     id="path6154-3-1"
     d="m -133.03003,-642.45348 -34.40182,-45.03983 -33.96284,44.99297 c 22.40006,1.6459 45.08443,2.0977 68.36466,0.0469 z"
     inkscape:transform-center-y="-1.31916"
     inkscape:transform-center-x="-13.349673"
     style="fill:#faa61a;fill-opacity:1;stroke:none;stroke-width:1.04777086;stroke-opacity:1" /><path
     sodipodi:nodetypes="cccc"
     inkscape:connector-curvature="0"
     id="path6154-3-1-4"
     d="m -133.03003,-642.45348 c -8.35405,17.47376 0.86373,32.48315 -34.02729,59.26591 -14.54791,-15.48705 -33.68594,-24.63535 -34.33737,-59.31277 z"
     inkscape:transform-center-y="-1.31916"
     inkscape:transform-center-x="-13.349673"
     style="fill:#ffcb08;fill-opacity:1;stroke:none;stroke-width:1.04777086;stroke-opacity:1" /><path
     sodipodi:nodetypes="cccc"
     inkscape:connector-curvature="0"
     id="path6154-3-5"
     d="m -201.39469,-642.50034 -21.93827,-13.02557 -0.0582,64.66605 c 12.85549,-11.20987 25.05613,-23.13154 21.99647,-51.64048 z"
     inkscape:transform-center-y="-1.31916"
     inkscape:transform-center-x="-13.349673"
     style="fill:#ffcb08;fill-opacity:1;stroke:none;stroke-width:1.04777086;stroke-opacity:1" /><path
     sodipodi:nodetypes="cccc"
     inkscape:connector-curvature="0"
     id="path6154-3-5-2"
     d="m -111.64818,-590.72413 c -8.54581,-16.90115 -24.57317,-31.09526 -21.38185,-51.72935 l 21.63969,-12.76236 z"
     inkscape:transform-center-y="1.31916"
     inkscape:transform-center-x="13.349667"
     style="fill:#faa61a;fill-opacity:1;stroke:none;stroke-width:1.04777086;stroke-opacity:1" /><path
     sodipodi:nodetypes="cccc"
     inkscape:connector-curvature="0"
     id="path6154-3-5-3"
     d="m -111.64818,-590.72413 -21.38185,-51.72935 -34.02729,59.26591 c 19.34242,7.52395 37.45969,0.9586 55.40914,-7.53656 z"
     inkscape:transform-center-y="-1.31916"
     inkscape:transform-center-x="-13.349673"
     style="fill:#fdb813;fill-opacity:1;stroke:none;stroke-width:1.04777086;stroke-opacity:1" /><path
     sodipodi:nodetypes="cccc"
     inkscape:connector-curvature="0"
     id="path6154-3-5-32"
     d="m -167.05732,-583.18757 -34.33737,-59.31277 -21.9965,51.64048 c 18.17919,7.94635 36.74884,12.37856 56.33387,7.67229 z"
     inkscape:transform-center-y="-1.31916"
     inkscape:transform-center-x="-13.349673"
     style="fill:#ffde2b;fill-opacity:1;stroke:none;stroke-width:1.04777086;stroke-opacity:1" /><path
     sodipodi:nodetypes="cccc"
     inkscape:connector-curvature="0"
     id="path6154-35"
     d="m -223.39116,-590.85986 56.58772,32.88519 c 4.49465,-8.17534 9.03319,-16.34848 -0.25388,-25.2129 z"
     inkscape:transform-center-y="13.34967"
     inkscape:transform-center-x="-1.3191635"
     style="fill:#ffe94f;fill-opacity:1;stroke:none;stroke-width:1.04777086;stroke-opacity:1" /><path
     sodipodi:nodetypes="cccc"
     inkscape:connector-curvature="0"
     id="path6154-35-9"
     d="m -111.64818,-590.72413 -55.15526,32.74946 -0.25388,-25.2129 z"
     inkscape:transform-center-y="13.34967"
     inkscape:transform-center-x="1.3191635"
     style="fill:#ffcb08;fill-opacity:1;stroke:none;stroke-width:1.04777086;stroke-opacity:1" /></g><g
   aria-label="трактовочная сеть"
   style="font-style:normal;font-variant:normal;font-weight:normal;font-stretch:normal;font-size:10.66666698px;line-height:1.25;font-family:sans-serif;-inkscape-font-specification:'sans-serif, Normal';font-variant-ligatures:normal;font-variant-caps:normal;font-variant-numeric:normal;font-feature-settings:normal;text-align:start;letter-spacing:0px;word-spacing:0px;writing-mode:lr-tb;text-anchor:start;fill:#333333;fill-opacity:1;stroke:none"
   id="text835"><path
     id="path877"
     style="font-style:normal;font-variant:normal;font-weight:normal;font-stretch:normal;font-size:10.66666698px;font-family:sans-serif;-inkscape-font-specification:'sans-serif, Normal';font-variant-ligatures:normal;font-variant-caps:normal;font-variant-numeric:normal;font-feature-settings:normal;text-align:start;writing-mode:lr-tb;text-anchor:start;fill:#333333"
     d="m 244.32354,75.710172 q 0,-0.46875 -0.34375,-0.713542 -0.33854,-0.244791 -0.99479,-0.244791 h -1.36458 v 1.921875 h 1.36458 q 0.65625,0 0.99479,-0.244792 0.34375,-0.25 0.34375,-0.71875 z m -3.66666,-4.104167 h 0.96354 v 2.380209 h 1.40625 q 1.11458,0 1.71354,0.427083 0.60417,0.421875 0.60417,1.296875 0,0.875 -0.60417,1.302083 -0.59896,0.427084 -1.71354,0.427084 h -2.36979 z m -6.86459,0 h 5.58854 v 0.765625 h -2.32292 v 5.067709 h -0.9427 V 72.37163 h -2.32292 z m -0.88021,2.677084 v 0.46875 h -4.40625 q 0.0625,0.989583 0.59375,1.510416 0.53646,0.515625 1.48958,0.515625 0.55209,0 1.06771,-0.135416 0.52084,-0.135417 1.03125,-0.40625 v 0.90625 q -0.51562,0.21875 -1.05729,0.333333 -0.54167,0.114583 -1.09896,0.114583 -1.39583,0 -2.21354,-0.8125 -0.8125,-0.8125 -0.8125,-2.197916 0,-1.432292 0.77083,-2.270834 0.77605,-0.84375 2.08855,-0.84375 1.17708,0 1.85937,0.760417 0.6875,0.755208 0.6875,2.057292 z m -0.95833,-0.28125 q -0.0104,-0.786459 -0.44271,-1.255209 -0.42708,-0.46875 -1.13542,-0.46875 -0.80208,0 -1.28646,0.453125 -0.47916,0.453125 -0.55208,1.276042 z m -5.70834,-2.171875 v 0.895833 q -0.40625,-0.223958 -0.8177,-0.333333 -0.40625,-0.114584 -0.82292,-0.114584 -0.93229,0 -1.44792,0.59375 -0.51562,0.588542 -0.51562,1.65625 0,1.067709 0.51562,1.661459 0.51563,0.588541 1.44792,0.588541 0.41667,0 0.82292,-0.109375 0.41145,-0.114583 0.8177,-0.338541 v 0.885416 q -0.40104,0.1875 -0.83333,0.28125 -0.42708,0.09375 -0.91146,0.09375 -1.31771,0 -2.09375,-0.828125 -0.77604,-0.828125 -0.77604,-2.234375 0,-1.427083 0.78125,-2.244791 0.78646,-0.817709 2.15104,-0.817709 0.44271,0 0.86459,0.09375 0.42187,0.08854 0.8177,0.270834 z m -13.04687,1.458333 q 0,0.432292 0.33333,0.677083 0.33334,0.244792 0.95313,0.244792 h 1.29166 V 72.37163 H 214.485 q -0.61979,0 -0.95313,0.239584 -0.33333,0.239583 -0.33333,0.677083 z m -1.36458,4.151042 1.78125,-2.557292 q -0.60417,-0.135417 -1.00521,-0.489583 -0.40104,-0.359375 -0.40104,-1.104167 0,-0.84375 0.55729,-1.260417 0.5625,-0.421875 1.69271,-0.421875 h 2.28125 v 5.833334 h -0.96355 v -2.463542 h -1.1927 l -1.71875,2.463542 z m -3.48958,-2.932292 q -1.16146,0 -1.60938,0.265625 -0.44792,0.265625 -0.44792,0.90625 0,0.510417 0.33334,0.8125 0.33854,0.296875 0.91666,0.296875 0.79688,0 1.27605,-0.5625 0.48437,-0.567708 0.48437,-1.505208 v -0.213542 z m 1.91145,-0.395833 v 3.328125 h -0.95833 v -0.885417 q -0.32812,0.53125 -0.81771,0.786458 -0.48958,0.25 -1.19791,0.25 -0.89584,0 -1.42709,-0.5 -0.52604,-0.505208 -0.52604,-1.348958 0,-0.984375 0.65625,-1.484375 0.66146,-0.5 1.96875,-0.5 h 1.34375 v -0.09375 q 0,-0.661458 -0.4375,-1.020833 -0.43229,-0.364584 -1.21875,-0.364584 -0.5,0 -0.97396,0.119792 -0.47396,0.119792 -0.91146,0.359375 V 71.87163 q 0.52605,-0.203125 1.02084,-0.302083 0.49479,-0.104167 0.96354,-0.104167 1.26562,0 1.89062,0.65625 0.625,0.65625 0.625,1.989584 z M 198.6777,71.606005 h 0.96355 v 2.380209 h 3.10937 v -2.380209 h 0.96354 v 5.833334 h -0.96354 v -2.6875 h -3.10937 v 2.6875 h -0.96355 z m -2.90625,5.833334 V 74.986214 H 193.985 q -0.79688,0 -1.32813,-0.494792 -0.47917,-0.447917 -0.47917,-1.40625 v -1.479167 h 0.95834 v 1.390625 q 0,0.609375 0.27083,0.916667 0.27604,0.307292 0.81771,0.307292 h 1.54687 v -2.614584 h 0.95834 v 5.833334 z m -7.6302,-5.161459 q -0.77084,0 -1.21875,0.604167 -0.44792,0.598958 -0.44792,1.645833 0,1.046875 0.44271,1.651042 0.44792,0.598958 1.22396,0.598958 0.76562,0 1.21354,-0.604166 0.44792,-0.604167 0.44792,-1.645834 0,-1.036458 -0.44792,-1.640625 -0.44792,-0.609375 -1.21354,-0.609375 z m 0,-0.8125 q 1.25,0 1.96354,0.8125 0.71354,0.8125 0.71354,2.25 0,1.432292 -0.71354,2.25 -0.71354,0.8125 -1.96354,0.8125 -1.25521,0 -1.96875,-0.8125 -0.70834,-0.817708 -0.70834,-2.25 0,-1.4375 0.70834,-2.25 0.71354,-0.8125 1.96875,-0.8125 z m -7.63021,3.286459 v 1.921875 h 1.36458 q 0.65625,0 1,-0.244792 0.34375,-0.25 0.34375,-0.71875 0,-0.46875 -0.34375,-0.713542 -0.34375,-0.244791 -1,-0.244791 z m 0,-2.380209 v 1.614584 h 1.26041 q 0.54167,0 0.88542,-0.213542 0.34375,-0.21875 0.34375,-0.604167 0,-0.385416 -0.34375,-0.588541 -0.34375,-0.208334 -0.88542,-0.208334 z m -0.95834,-0.765625 h 2.28125 q 1.02605,0 1.57813,0.375 0.55208,0.375 0.55208,1.067709 0,0.536458 -0.28125,0.854166 -0.28125,0.3125 -0.83333,0.390625 0.66146,0.125 1.02604,0.520834 0.36458,0.395833 0.36458,0.989583 0,0.78125 -0.60416,1.208333 -0.59896,0.427084 -1.71354,0.427084 h -2.3698 z m -4.22395,0.671875 q -0.77084,0 -1.21875,0.604167 -0.44792,0.598958 -0.44792,1.645833 0,1.046875 0.44271,1.651042 0.44792,0.598958 1.22396,0.598958 0.76562,0 1.21354,-0.604166 0.44792,-0.604167 0.44792,-1.645834 0,-1.036458 -0.44792,-1.640625 -0.44792,-0.609375 -1.21354,-0.609375 z m 0,-0.8125 q 1.25,0 1.96354,0.8125 0.71354,0.8125 0.71354,2.25 0,1.432292 -0.71354,2.25 -0.71354,0.8125 -1.96354,0.8125 -1.25521,0 -1.96875,-0.8125 -0.70834,-0.817708 -0.70834,-2.25 0,-1.4375 0.70834,-2.25 0.71354,-0.8125 1.96875,-0.8125 z m -9.16146,0.140625 h 5.58854 v 0.765625 h -2.32292 v 5.067709 H 168.4902 V 72.37163 h -2.32291 z m -5.78125,0 h 0.95312 v 2.739584 l 2.70313,-2.739584 h 1.17708 l -2.22917,2.255209 2.51563,3.578125 h -1.07292 l -2.06771,-2.942709 -1.02604,1.041667 v 1.901042 h -0.95312 z m -3.85417,2.901042 q -1.16146,0 -1.60937,0.265625 -0.44792,0.265625 -0.44792,0.90625 0,0.510417 0.33333,0.8125 0.33854,0.296875 0.91667,0.296875 0.79687,0 1.27604,-0.5625 0.48438,-0.567708 0.48438,-1.505208 v -0.213542 z m 1.91146,-0.395833 v 3.328125 H 157.485 v -0.885417 q -0.32813,0.53125 -0.81771,0.786458 -0.48959,0.25 -1.19792,0.25 -0.89583,0 -1.42708,-0.5 -0.52604,-0.505208 -0.52604,-1.348958 0,-0.984375 0.65625,-1.484375 0.66145,-0.5 1.96875,-0.5 h 1.34375 v -0.09375 q 0,-0.661458 -0.4375,-1.020833 -0.4323,-0.364584 -1.21875,-0.364584 -0.5,0 -0.97396,0.119792 -0.47396,0.119792 -0.91146,0.359375 V 71.87163 q 0.52604,-0.203125 1.02083,-0.302083 0.49479,-0.104167 0.96354,-0.104167 1.26563,0 1.89063,0.65625 0.625,0.65625 0.625,1.989584 z m -10.40625,2.453125 v 3.09375 h -0.96354 v -8.052084 h 0.96354 v 0.885417 q 0.30208,-0.520833 0.76042,-0.770833 0.46354,-0.255209 1.10416,-0.255209 1.0625,0 1.72396,0.84375 0.66667,0.84375 0.66667,2.21875 0,1.375 -0.66667,2.21875 -0.66146,0.84375 -1.72396,0.84375 -0.64062,0 -1.10416,-0.25 -0.45834,-0.255208 -0.76042,-0.776041 z m 3.26042,-2.036459 q 0,-1.057291 -0.4375,-1.65625 -0.4323,-0.604166 -1.19271,-0.604166 -0.76042,0 -1.19792,0.604166 -0.43229,0.598959 -0.43229,1.65625 0,1.057292 0.43229,1.661459 0.4375,0.598958 1.19792,0.598958 0.76041,0 1.19271,-0.598958 0.4375,-0.604167 0.4375,-1.661459 z m -11.08855,-2.921875 h 5.58855 v 0.765625 h -2.32292 v 5.067709 h -0.94271 V 72.37163 h -2.32292 z m 89.86077,-37.998852 h 2.6 v 8.28 q 0.72,-0.2 2.12,-0.4 1.44,-0.24 2.96,-0.24 1.68,0 3.16,0.36 1.48,0.36 2.6,1.16 1.12,0.8 1.76,2.08 0.68,1.28 0.68,3.12 0,1.84 -0.68,3.12 -0.64,1.28 -1.8,2.12 -1.12,0.8 -2.72,1.16 -1.56,0.36 -3.36,0.36 -1.08,0 -2.2,-0.08 -1.08,-0.08 -2.04,-0.2 -0.96,-0.12 -1.76,-0.28 -0.8,-0.16 -1.32,-0.36 z m 7.32,18.8 q 2.68,0 4.28,-1 1.6,-1.04 1.6,-3.44 0,-1.12 -0.44,-1.96 -0.44,-0.84 -1.2,-1.36 -0.72,-0.56 -1.76,-0.8 -1,-0.28 -2.2,-0.28 -1.32,0 -2.64,0.12 -1.32,0.12 -2.36,0.48 v 7.84 q 0.52,0.12 1.84,0.28 1.32,0.12 2.88,0.12 z m -24.40312,-16.6 v 0.84 q 0,1.2 -0.04,2.64 -0.04,1.4 -0.16,2.88 -0.12,1.48 -0.4,2.96 -0.24,1.44 -0.64,2.72 -0.44,1.32 -1.12,2.52 -0.64,1.16 -1.56,2.08 -0.88,0.88 -2.08,1.48 -1.16,0.56 -2.64,0.72 l -0.36,-2.16 q 2,-0.44 3.2,-1.64 1.24,-1.2 2.04,-3.4 0.8,-2.2 1,-5.04 0.24,-2.88 0.24,-6.28 v -2.52 h 12.72 v 20.68 h -2.6 v -18.48 z m -19.99063,16.6 q 1.52,0 2.64,-0.08 1.16,-0.12 1.96,-0.28 v -7.28 q -0.44,-0.2 -1.4,-0.4 -0.96,-0.24 -2.64,-0.24 -0.96,0 -2,0.16 -1.04,0.12 -1.92,0.6 -0.88,0.44 -1.44,1.24 -0.56,0.8 -0.56,2.12 0,1.16 0.36,1.96 0.4,0.8 1.08,1.28 0.72,0.48 1.68,0.72 1,0.2 2.24,0.2 z m -0.24,-19.28 q 2.04,0 3.44,0.6 1.44,0.56 2.32,1.6 0.88,1 1.28,2.4 0.4,1.4 0.4,3.04 v 13.04 q -0.4,0.12 -1.16,0.28 -0.76,0.12 -1.76,0.28 -1,0.16 -2.24,0.24 -1.2,0.12 -2.48,0.12 -1.64,0 -3.04,-0.36 -1.36,-0.36 -2.4,-1.12 -1,-0.8 -1.6,-2 -0.56,-1.24 -0.56,-3 0,-1.68 0.64,-2.88 0.64,-1.2 1.8,-1.96 1.16,-0.8 2.76,-1.16 1.6,-0.36 3.48,-0.36 0.56,0 1.16,0.08 0.64,0.04 1.2,0.16 0.6,0.08 1,0.2 0.44,0.08 0.6,0.16 v -1.28 q 0,-1.08 -0.16,-2.08 -0.16,-1.04 -0.72,-1.84 -0.52,-0.84 -1.52,-1.32 -0.96,-0.52 -2.56,-0.52 -2.28,0 -3.4,0.32 -1.12,0.32 -1.64,0.52 l -0.36,-2.28 q 0.68,-0.32 2.08,-0.6 1.44,-0.28 3.44,-0.28 z m -13.32875,18.96 h 2.36 v 7.92 h -2.52 v -5.72 h -16.08 v 5.72 h -2.52 v -7.92 h 2.12 q 1.32,-2.08 2.08,-4 0.8,-1.92 1.2,-3.92 0.44,-2 0.56,-4.2 0.16,-2.24 0.16,-4.88 v -1.48 h 12.64 z m -10.2,-16.28 q 0,2.16 -0.16,4.24 -0.12,2.08 -0.52,4.12 -0.4,2.04 -1.12,4.04 -0.72,1.96 -1.88,3.88 h 11.28 v -16.28 z m -19.9825,16.6 q 2.8,0 4.4,-0.92 1.6,-0.96 1.6,-2.84 0,-1.36 -0.6,-2.16 -0.6,-0.8 -1.52,-1.24 -0.88,-0.44 -1.92,-0.56 -1,-0.16 -1.84,-0.16 h -2.88 v -2.2 h 2.68 q 0.72,0 1.64,-0.12 0.96,-0.12 1.76,-0.48 0.8,-0.36 1.36,-1 0.56,-0.68 0.56,-1.76 0,-1.04 -0.48,-1.72 -0.44,-0.68 -1.2,-1.08 -0.76,-0.4 -1.76,-0.56 -0.96,-0.16 -1.96,-0.16 -2.28,0 -3.6,0.48 -1.32,0.44 -1.8,0.68 l -0.6,-2.32 q 0.56,-0.28 2.12,-0.68 1.56,-0.44 3.88,-0.44 3.96,0 6,1.44 2.04,1.44 2.04,4.28 0,1.76 -1.04,2.88 -1.04,1.08 -2.44,1.52 1.96,0.56 3.12,1.88 1.16,1.32 1.16,3.48 0,3.08 -2.2,4.6 -2.2,1.52 -6.44,1.52 -2.84,0 -4.56,-0.48 -1.72,-0.48 -2.2,-0.72 l 0.68,-2.36 q 0.12,0.08 0.52,0.28 0.44,0.16 1.2,0.4 0.76,0.2 1.84,0.36 1.08,0.16 2.48,0.16 z m -18.14437,2.32 q -1.32,-2.44 -2.56,-5.08 -1.2,-2.64 -2.28,-5.32 -1.04,-2.72 -1.92,-5.4 -0.88,-2.72 -1.52,-5.32 h 2.76 q 0.44,1.92 1.12,4.16 0.68,2.2 1.52,4.56 0.88,2.36 1.92,4.84 1.04,2.48 2.24,4.88 0.88,-2.48 1.56,-4.68 0.68,-2.2 1.24,-4.36 0.6,-2.2 1.12,-4.48 0.56,-2.28 1.16,-4.92 h 2.6 q -1.28,5.8 -2.92,11.28 -1.64,5.48 -3.56,10.04 -0.76,1.8 -1.56,3.08 -0.8,1.32 -1.8,2.16 -0.96,0.84 -2.28,1.24 -1.28,0.4 -3.04,0.4 -1,0 -1.84,-0.24 -0.8,-0.24 -1,-0.36 l 0.52,-2.16 q 0.16,0.12 0.88,0.32 0.76,0.24 1.56,0.24 1.12,0 2,-0.24 0.92,-0.24 1.64,-0.84 0.72,-0.56 1.28,-1.48 0.6,-0.92 1.16,-2.32 z m -18.335,0.16 q -2.68,0 -5,-0.96 -2.28,-0.96 -4,-2.8 -1.68,-1.84 -2.68,-4.52 -0.96,-2.72 -0.96,-6.2 0,-3.48 1.04,-6.16 1.08,-2.72 2.84,-4.56 1.76,-1.84 4.08,-2.76 2.32,-0.96 4.84,-0.96 1.56,0 2.84,0.2 1.28,0.2 2.24,0.52 0.96,0.28 1.64,0.6 0.68,0.28 1.04,0.52 l -0.88,2.36 q -1,-0.6 -2.56,-1.16 -1.52,-0.6 -3.8,-0.6 -2.6,0 -4.56,0.88 -1.92,0.88 -3.24,2.48 -1.32,1.6 -2,3.8 -0.64,2.2 -0.64,4.88 0,2.76 0.64,5 0.68,2.2 1.96,3.76 1.28,1.56 3.12,2.4 1.88,0.84 4.28,0.84 2.64,0 4.4,-0.48 1.8,-0.52 2.72,-1.04 l 0.76,2.32 q -0.28,0.2 -0.96,0.48 -0.68,0.24 -1.72,0.52 -1.04,0.28 -2.4,0.44 -1.36,0.2 -3.04,0.2 z" /></g>
</svg>